127.0.0.1 - - [14/Jul/2020:09:38:27 +0900] "GET / HTTP/1.1" 404 1065
0:0:0:0:0:0:0:1 - - [14/Jul/2020:09:38:28 +0900] "GET /todoList/ HTTP/1.1" 404 1034
0:0:0:0:0:0:0:1 - - [14/Jul/2020:09:38:36 +0900] "GET /todoList/todo/1 HTTP/1.1" 500 4296
127.0.0.1 - - [14/Jul/2020:09:39:15 +0900] "GET / HTTP/1.1" 404 1065
0:0:0:0:0:0:0:1 - - [14/Jul/2020:09:39:15 +0900] "GET /todoList/ HTTP/1.1" 404 1034
0:0:0:0:0:0:0:1 - - [14/Jul/2020:09:39:22 +0900] "GET /todoList/todo/1 HTTP/1.1" 500 4296
127.0.0.1 - - [14/Jul/2020:09:50:33 +0900] "GET / HTTP/1.1" 404 1065
0:0:0:0:0:0:0:1 - - [14/Jul/2020:09:50:34 +0900] "GET /todoList/ HTTP/1.1" 404 1034
0:0:0:0:0:0:0:1 - - [14/Jul/2020:09:50:40 +0900] "GET /todoList/todo/1 HTTP/1.1" 500 4296
127.0.0.1 - - [14/Jul/2020:09:56:30 +0900] "GET / HTTP/1.1" 404 1065
0:0:0:0:0:0:0:1 - - [14/Jul/2020:09:56:31 +0900] "GET /todoList/ HTTP/1.1" 404 1034
0:0:0:0:0:0:0:1 - - [14/Jul/2020:09:56:38 +0900] "GET /todoList/todo/1 HTTP/1.1" 500 4175
127.0.0.1 - - [14/Jul/2020:09:57:13 +0900] "GET / HTTP/1.1" 404 1065
0:0:0:0:0:0:0:1 - - [14/Jul/2020:09:57:13 +0900] "GET /todoList/ HTTP/1.1" 404 1034
0:0:0:0:0:0:0:1 - - [14/Jul/2020:09:57:20 +0900] "GET /todoList/todo/1 HTTP/1.1" 500 10389
0:0:0:0:0:0:0:1 - - [14/Jul/2020:10:04:09 +0900] "GET /todoList/todo/1 HTTP/1.1" 500 10389
0:0:0:0:0:0:0:1 - - [14/Jul/2020:10:04:12 +0900] "GET /todoList/todo/1 HTTP/1.1" 500 10389
0:0:0:0:0:0:0:1 - - [14/Jul/2020:10:04:19 +0900] "GET /todoList/ HTTP/1.1" 404 1034
0:0:0:0:0:0:0:1 - - [14/Jul/2020:10:04:23 +0900] "GET /todoList/1 HTTP/1.1" 404 1034
0:0:0:0:0:0:0:1 - - [14/Jul/2020:10:04:45 +0900] "GET /todoList/todolist/1 HTTP/1.1" 404 1034
0:0:0:0:0:0:0:1 - - [14/Jul/2020:10:05:14 +0900] "GET /todoList/ HTTP/1.1" 404 1034
0:0:0:0:0:0:0:1 - - [14/Jul/2020:10:05:21 +0900] "GET /todoList/todolist/1 HTTP/1.1" 404 1034
0:0:0:0:0:0:0:1 - - [14/Jul/2020:10:05:30 +0900] "GET /todoList/todo/1 HTTP/1.1" 500 10389
127.0.0.1 - - [14/Jul/2020:10:22:36 +0900] "GET / HTTP/1.1" 404 1065
0:0:0:0:0:0:0:1 - - [14/Jul/2020:10:22:37 +0900] "GET /todoList/ HTTP/1.1" 404 1034
0:0:0:0:0:0:0:1 - - [14/Jul/2020:10:22:44 +0900] "GET /todoList/todo/1 HTTP/1.1" 500 10389
127.0.0.1 - - [14/Jul/2020:10:37:15 +0900] "GET / HTTP/1.1" 404 1065
0:0:0:0:0:0:0:1 - - [14/Jul/2020:10:37:15 +0900] "GET /todoList/ HTTP/1.1" 404 1034
0:0:0:0:0:0:0:1 - - [14/Jul/2020:10:37:23 +0900] "GET /todoList/todo/1 HTTP/1.1" 200 163
0:0:0:0:0:0:0:1 - - [14/Jul/2020:10:38:31 +0900] "GET /todoList/ HTTP/1.1" 404 1034
0:0:0:0:0:0:0:1 - - [14/Jul/2020:10:38:34 +0900] "GET /todoList/todo/1 HTTP/1.1" 200 163
127.0.0.1 - - [14/Jul/2020:10:38:54 +0900] "GET / HTTP/1.1" 404 1065
0:0:0:0:0:0:0:1 - - [14/Jul/2020:10:38:55 +0900] "GET /todoList/ HTTP/1.1" 404 1034
0:0:0:0:0:0:0:1 - - [14/Jul/2020:10:38:58 +0900] "GET /todoList/todo/1 HTTP/1.1" 200 163
127.0.0.1 - - [14/Jul/2020:10:42:59 +0900] "GET / HTTP/1.1" 404 1065
0:0:0:0:0:0:0:1 - - [14/Jul/2020:10:42:59 +0900] "GET /todoList/ HTTP/1.1" 404 1034
0:0:0:0:0:0:0:1 - - [14/Jul/2020:10:43:07 +0900] "GET /todoList/todo/1 HTTP/1.1" 200 163
127.0.0.1 - - [14/Jul/2020:10:45:43 +0900] "GET / HTTP/1.1" 404 1065
0:0:0:0:0:0:0:1 - - [14/Jul/2020:10:45:44 +0900] "GET /todoList/ HTTP/1.1" 404 1034
0:0:0:0:0:0:0:1 - - [14/Jul/2020:10:45:50 +0900] "GET /todoList/todo/1 HTTP/1.1" 200 163
127.0.0.1 - - [14/Jul/2020:10:49:05 +0900] "GET / HTTP/1.1" 404 1065
0:0:0:0:0:0:0:1 - - [14/Jul/2020:10:49:05 +0900] "GET /todoList/ HTTP/1.1" 404 1034
0:0:0:0:0:0:0:1 - - [14/Jul/2020:10:49:10 +0900] "GET /todoList/todo/1 HTTP/1.1" 500 3982
127.0.0.1 - - [14/Jul/2020:10:54:36 +0900] "GET / HTTP/1.1" 404 1065
0:0:0:0:0:0:0:1 - - [14/Jul/2020:10:54:37 +0900] "GET /todoList/ HTTP/1.1" 404 1034
0:0:0:0:0:0:0:1 - - [14/Jul/2020:10:54:40 +0900] "GET /todoList/todo/1 HTTP/1.1" 200 163
0:0:0:0:0:0:0:1 - - [14/Jul/2020:10:55:52 +0900] "GET /todoList/todo/1 HTTP/1.1" 200 163
127.0.0.1 - - [14/Jul/2020:10:56:13 +0900] "GET / HTTP/1.1" 404 1065
0:0:0:0:0:0:0:1 - - [14/Jul/2020:10:56:14 +0900] "GET /todoList/ HTTP/1.1" 404 1034
0:0:0:0:0:0:0:1 - - [14/Jul/2020:10:56:21 +0900] "GET /todoList/todo1 HTTP/1.1" 404 1034
0:0:0:0:0:0:0:1 - - [14/Jul/2020:10:56:26 +0900] "GET /todoList/todo/1 HTTP/1.1" 200 163
127.0.0.1 - - [14/Jul/2020:10:57:33 +0900] "GET / HTTP/1.1" 404 1065
0:0:0:0:0:0:0:1 - - [14/Jul/2020:10:57:34 +0900] "GET /todoList/ HTTP/1.1" 404 1034
0:0:0:0:0:0:0:1 - - [14/Jul/2020:10:57:40 +0900] "GET /todoList/todo/1 HTTP/1.1" 200 163
127.0.0.1 - - [14/Jul/2020:10:58:21 +0900] "GET / HTTP/1.1" 404 1065
0:0:0:0:0:0:0:1 - - [14/Jul/2020:10:58:22 +0900] "GET /todoList/ HTTP/1.1" 404 1034
0:0:0:0:0:0:0:1 - - [14/Jul/2020:10:58:30 +0900] "GET /todoList/todo/1 HTTP/1.1" 200 135
127.0.0.1 - - [14/Jul/2020:11:17:13 +0900] "GET / HTTP/1.1" 404 1065
0:0:0:0:0:0:0:1 - - [14/Jul/2020:11:17:13 +0900] "GET /todoList/ HTTP/1.1" 404 1034
0:0:0:0:0:0:0:1 - - [14/Jul/2020:11:17:18 +0900] "GET /todoList/todo/1 HTTP/1.1" 404 1095
127.0.0.1 - - [14/Jul/2020:11:17:57 +0900] "GET / HTTP/1.1" 404 1065
0:0:0:0:0:0:0:1 - - [14/Jul/2020:11:17:58 +0900] "GET /todoList/ HTTP/1.1" 404 1034
0:0:0:0:0:0:0:1 - - [14/Jul/2020:11:18:03 +0900] "GET /todoList/todo/1 HTTP/1.1" 200 227
127.0.0.1 - - [14/Jul/2020:11:44:03 +0900] "GET / HTTP/1.1" 404 1065
0:0:0:0:0:0:0:1 - - [14/Jul/2020:11:44:04 +0900] "GET /todoList/ HTTP/1.1" 404 1034
0:0:0:0:0:0:0:1 - - [14/Jul/2020:11:44:15 +0900] "GET /todoList/todo/ HTTP/1.1" 500 4257
127.0.0.1 - - [14/Jul/2020:11:50:54 +0900] "GET / HTTP/1.1" 404 1065
0:0:0:0:0:0:0:1 - - [14/Jul/2020:11:50:55 +0900] "GET /todoList/ HTTP/1.1" 404 1034
0:0:0:0:0:0:0:1 - - [14/Jul/2020:11:51:01 +0900] "GET /todoList/test/ HTTP/1.1" 404 1034
0:0:0:0:0:0:0:1 - - [14/Jul/2020:11:51:03 +0900] "GET /todoList/test/ HTTP/1.1" 404 1034
0:0:0:0:0:0:0:1 - - [14/Jul/2020:11:51:16 +0900] "GET /todoList/todo/ HTTP/1.1" 500 11264
127.0.0.1 - - [14/Jul/2020:11:54:46 +0900] "GET / HTTP/1.1" 404 1065
0:0:0:0:0:0:0:1 - - [14/Jul/2020:11:54:46 +0900] "GET /todoList/ HTTP/1.1" 404 1034
0:0:0:0:0:0:0:1 - - [14/Jul/2020:11:54:53 +0900] "GET /todoList/todo/ HTTP/1.1" 500 11262
127.0.0.1 - - [14/Jul/2020:11:55:23 +0900] "GET / HTTP/1.1" 404 1065
0:0:0:0:0:0:0:1 - - [14/Jul/2020:11:55:23 +0900] "GET /todoList/ HTTP/1.1" 404 1034
0:0:0:0:0:0:0:1 - - [14/Jul/2020:11:55:30 +0900] "GET /todoList/todo/ HTTP/1.1" 404 1098
127.0.0.1 - - [14/Jul/2020:11:56:57 +0900] "GET / HTTP/1.1" 404 1065
0:0:0:0:0:0:0:1 - - [14/Jul/2020:11:56:58 +0900] "GET /todoList/ HTTP/1.1" 404 1034
0:0:0:0:0:0:0:1 - - [14/Jul/2020:11:57:06 +0900] "GET /todoList/todo/ HTTP/1.1" 200 276
127.0.0.1 - - [14/Jul/2020:13:23:20 +0900] "GET / HTTP/1.1" 404 1065
0:0:0:0:0:0:0:1 - - [14/Jul/2020:13:23:21 +0900] "GET /todoList/ HTTP/1.1" 500 9622
127.0.0.1 - - [14/Jul/2020:13:59:50 +0900] "GET / HTTP/1.1" 404 1065
0:0:0:0:0:0:0:1 - - [14/Jul/2020:13:59:51 +0900] "GET /todoList/ HTTP/1.1" 500 9708
0:0:0:0:0:0:0:1 - - [14/Jul/2020:14:00:34 +0900] "GET /todoList/todo/ HTTP/1.1" 500 9708
127.0.0.1 - - [14/Jul/2020:14:08:49 +0900] "GET / HTTP/1.1" 404 1065
0:0:0:0:0:0:0:1 - - [14/Jul/2020:14:08:49 +0900] "GET /todoList/ HTTP/1.1" 500 9708
127.0.0.1 - - [14/Jul/2020:14:13:17 +0900] "GET / HTTP/1.1" 404 1065
0:0:0:0:0:0:0:1 - - [14/Jul/2020:14:13:18 +0900] "GET /todoList/ HTTP/1.1" 500 9708
127.0.0.1 - - [14/Jul/2020:14:16:17 +0900] "GET / HTTP/1.1" 404 1065
0:0:0:0:0:0:0:1 - - [14/Jul/2020:14:16:18 +0900] "GET /todoList/ HTTP/1.1" 404 1034
0:0:0:0:0:0:0:1 - - [14/Jul/2020:14:16:32 +0900] "GET /todoList/todo/ HTTP/1.1" 500 6331
0:0:0:0:0:0:0:1 - - [14/Jul/2020:14:16:51 +0900] "GET /todoList/todo/1 HTTP/1.1" 200 227
0:0:0:0:0:0:0:1 - - [14/Jul/2020:14:16:55 +0900] "GET /todoList/todo/2 HTTP/1.1" 200 210
127.0.0.1 - - [14/Jul/2020:14:24:18 +0900] "GET / HTTP/1.1" 404 1065
0:0:0:0:0:0:0:1 - - [14/Jul/2020:14:24:18 +0900] "GET /todoList/ HTTP/1.1" 404 1034
0:0:0:0:0:0:0:1 - - [14/Jul/2020:14:24:24 +0900] "GET /todoList/todo/ HTTP/1.1" 200 450
0:0:0:0:0:0:0:1 - - [14/Jul/2020:14:24:40 +0900] "POST /todoList/todo/;jsessionid=BFFDCC394F8CD6255A1B7AA813A7574B HTTP/1.1" 302 -
0:0:0:0:0:0:0:1 - - [14/Jul/2020:14:24:40 +0900] "GET /todoList/todo/ HTTP/1.1" 200 483
127.0.0.1 - - [14/Jul/2020:14:31:18 +0900] "GET / HTTP/1.1" 404 1065
0:0:0:0:0:0:0:1 - - [14/Jul/2020:14:31:18 +0900] "GET /todoList/ HTTP/1.1" 404 1034
0:0:0:0:0:0:0:1 - - [14/Jul/2020:14:31:30 +0900] "GET /todoList/todo/ HTTP/1.1" 200 527
127.0.0.1 - - [14/Jul/2020:14:33:00 +0900] "GET / HTTP/1.1" 404 1065
0:0:0:0:0:0:0:1 - - [14/Jul/2020:14:33:01 +0900] "GET /todoList/ HTTP/1.1" 404 1034
0:0:0:0:0:0:0:1 - - [14/Jul/2020:14:33:10 +0900] "GET /todoList/todo/ HTTP/1.1" 200 527
127.0.0.1 - - [14/Jul/2020:14:36:31 +0900] "GET / HTTP/1.1" 404 1065
0:0:0:0:0:0:0:1 - - [14/Jul/2020:14:36:32 +0900] "GET /todoList/ HTTP/1.1" 404 1034
0:0:0:0:0:0:0:1 - - [14/Jul/2020:14:36:42 +0900] "GET /todoList/todo/ HTTP/1.1" 200 483
127.0.0.1 - - [14/Jul/2020:14:38:00 +0900] "GET / HTTP/1.1" 404 1065
0:0:0:0:0:0:0:1 - - [14/Jul/2020:14:38:00 +0900] "GET /todoList/ HTTP/1.1" 404 1034
0:0:0:0:0:0:0:1 - - [14/Jul/2020:14:38:07 +0900] "GET /todoList/todo/ HTTP/1.1" 200 890
127.0.0.1 - - [14/Jul/2020:14:45:47 +0900] "GET / HTTP/1.1" 404 1065
0:0:0:0:0:0:0:1 - - [14/Jul/2020:14:45:48 +0900] "GET /todoList/ HTTP/1.1" 500 9808
127.0.0.1 - - [14/Jul/2020:14:47:35 +0900] "GET / HTTP/1.1" 404 1065
0:0:0:0:0:0:0:1 - - [14/Jul/2020:14:47:35 +0900] "GET /todoList/ HTTP/1.1" 404 1034
0:0:0:0:0:0:0:1 - - [14/Jul/2020:14:47:42 +0900] "GET /todoList/todo/ HTTP/1.1" 200 890
127.0.0.1 - - [14/Jul/2020:14:49:33 +0900] "GET / HTTP/1.1" 404 1065
0:0:0:0:0:0:0:1 - - [14/Jul/2020:14:49:33 +0900] "GET /todoList/ HTTP/1.1" 404 1034
0:0:0:0:0:0:0:1 - - [14/Jul/2020:14:49:42 +0900] "GET /todoList/todo/ HTTP/1.1" 200 483
127.0.0.1 - - [14/Jul/2020:14:51:02 +0900] "GET / HTTP/1.1" 404 1065
0:0:0:0:0:0:0:1 - - [14/Jul/2020:14:51:03 +0900] "GET /todoList/ HTTP/1.1" 404 1034
0:0:0:0:0:0:0:1 - - [14/Jul/2020:14:51:12 +0900] "GET /todoList/todo/ HTTP/1.1" 200 990
0:0:0:0:0:0:0:1 - - [14/Jul/2020:14:51:18 +0900] "POST /todoList/todo/ HTTP/1.1" 500 10271
127.0.0.1 - - [14/Jul/2020:14:53:54 +0900] "GET / HTTP/1.1" 404 1065
0:0:0:0:0:0:0:1 - - [14/Jul/2020:14:53:54 +0900] "GET /todoList/ HTTP/1.1" 404 1034
0:0:0:0:0:0:0:1 - - [14/Jul/2020:14:54:00 +0900] "GET /todoList/todo/1 HTTP/1.1" 200 227
0:0:0:0:0:0:0:1 - - [14/Jul/2020:14:54:05 +0900] "GET /todoList/todo/ HTTP/1.1" 200 987
0:0:0:0:0:0:0:1 - - [14/Jul/2020:14:54:08 +0900] "POST /todoList/todo/ HTTP/1.1" 500 10271
127.0.0.1 - - [14/Jul/2020:15:01:20 +0900] "GET / HTTP/1.1" 404 1065
0:0:0:0:0:0:0:1 - - [14/Jul/2020:15:01:21 +0900] "GET /todoList/ HTTP/1.1" 500 9808
127.0.0.1 - - [14/Jul/2020:15:08:45 +0900] "GET / HTTP/1.1" 404 1065
0:0:0:0:0:0:0:1 - - [14/Jul/2020:15:08:46 +0900] "GET /todoList/ HTTP/1.1" 200 967
0:0:0:0:0:0:0:1 - - [14/Jul/2020:15:09:05 +0900] "POST /todoList/ HTTP/1.1" 405 1102
0:0:0:0:0:0:0:1 - - [14/Jul/2020:15:10:03 +0900] "POST /todoList/ HTTP/1.1" 405 1102
127.0.0.1 - - [14/Jul/2020:15:10:47 +0900] "GET / HTTP/1.1" 404 1065
0:0:0:0:0:0:0:1 - - [14/Jul/2020:15:10:48 +0900] "GET /todoList/ HTTP/1.1" 200 967
0:0:0:0:0:0:0:1 - - [14/Jul/2020:15:10:51 +0900] "POST /todoList/ HTTP/1.1" 302 -
0:0:0:0:0:0:0:1 - - [14/Jul/2020:15:10:51 +0900] "GET /todoList/ HTTP/1.1" 200 1157
0:0:0:0:0:0:0:1 - - [14/Jul/2020:15:11:00 +0900] "POST /todoList/ HTTP/1.1" 302 -
0:0:0:0:0:0:0:1 - - [14/Jul/2020:15:11:00 +0900] "GET /todoList/ HTTP/1.1" 200 1379
0:0:0:0:0:0:0:1 - - [14/Jul/2020:15:11:04 +0900] "POST /todoList/ HTTP/1.1" 500 10271
127.0.0.1 - - [14/Jul/2020:15:24:01 +0900] "GET / HTTP/1.1" 404 1065
0:0:0:0:0:0:0:1 - - [14/Jul/2020:15:24:03 +0900] "GET /todoList/ HTTP/1.1" 200 924
0:0:0:0:0:0:0:1 - - [14/Jul/2020:15:24:09 +0900] "GET /todoList/todo// HTTP/1.1" 200 930
0:0:0:0:0:0:0:1 - - [14/Jul/2020:15:24:23 +0900] "GET /todoList/todo// HTTP/1.1" 200 930
127.0.0.1 - - [14/Jul/2020:15:25:08 +0900] "GET / HTTP/1.1" 404 1065
0:0:0:0:0:0:0:1 - - [14/Jul/2020:15:25:10 +0900] "GET /todoList/ HTTP/1.1" 200 919
0:0:0:0:0:0:0:1 - - [14/Jul/2020:15:25:13 +0900] "GET /todoList/todo/1/ HTTP/1.1" 200 227
0:0:0:0:0:0:0:1 - - [14/Jul/2020:15:25:18 +0900] "GET /todoList/todo/2/ HTTP/1.1" 200 210
0:0:0:0:0:0:0:1 - - [14/Jul/2020:15:25:21 +0900] "GET /todoList/todo/3/ HTTP/1.1" 200 260
0:0:0:0:0:0:0:1 - - [14/Jul/2020:15:25:26 +0900] "GET /todoList/todo/4/ HTTP/1.1" 200 210
0:0:0:0:0:0:0:1 - - [14/Jul/2020:15:25:28 +0900] "GET /todoList/todo/5/ HTTP/1.1" 200 242
127.0.0.1 - - [14/Jul/2020:15:26:41 +0900] "GET / HTTP/1.1" 404 1065
0:0:0:0:0:0:0:1 - - [14/Jul/2020:15:26:43 +0900] "GET /todoList/ HTTP/1.1" 200 919
0:0:0:0:0:0:0:1 - - [14/Jul/2020:15:27:08 +0900] "GET /todoList/todo/1/ HTTP/1.1" 200 227
0:0:0:0:0:0:0:1 - - [14/Jul/2020:15:27:15 +0900] "GET /todoList/todo/1/ HTTP/1.1" 200 227
0:0:0:0:0:0:0:1 - - [14/Jul/2020:15:27:20 +0900] "GET /todoList/todo/1/ HTTP/1.1" 200 227
127.0.0.1 - - [14/Jul/2020:15:32:08 +0900] "GET / HTTP/1.1" 404 1065
0:0:0:0:0:0:0:1 - - [14/Jul/2020:15:32:11 +0900] "GET /todoList/ HTTP/1.1" 200 1164
127.0.0.1 - - [14/Jul/2020:15:36:27 +0900] "GET / HTTP/1.1" 404 1065
0:0:0:0:0:0:0:1 - - [14/Jul/2020:15:36:29 +0900] "GET /todoList/ HTTP/1.1" 200 1719
0:0:0:0:0:0:0:1 - - [14/Jul/2020:15:36:35 +0900] "POST /todoList/ HTTP/1.1" 500 10271
127.0.0.1 - - [14/Jul/2020:15:38:30 +0900] "GET / HTTP/1.1" 404 1065
0:0:0:0:0:0:0:1 - - [14/Jul/2020:15:38:31 +0900] "GET /todoList/ HTTP/1.1" 200 1719
0:0:0:0:0:0:0:1 - - [14/Jul/2020:15:38:34 +0900] "POST /todoList/ HTTP/1.1" 500 10271
127.0.0.1 - - [14/Jul/2020:15:41:48 +0900] "GET / HTTP/1.1" 404 1065
0:0:0:0:0:0:0:1 - - [14/Jul/2020:15:41:50 +0900] "GET /todoList/ HTTP/1.1" 200 1714
0:0:0:0:0:0:0:1 - - [14/Jul/2020:15:41:53 +0900] "POST /todoList/ HTTP/1.1" 500 10271
127.0.0.1 - - [14/Jul/2020:15:44:52 +0900] "GET / HTTP/1.1" 404 1065
0:0:0:0:0:0:0:1 - - [14/Jul/2020:15:44:53 +0900] "GET /todoList/ HTTP/1.1" 200 1714
0:0:0:0:0:0:0:1 - - [14/Jul/2020:15:44:55 +0900] "POST /todoList/ HTTP/1.1" 500 10271
127.0.0.1 - - [14/Jul/2020:15:49:38 +0900] "GET / HTTP/1.1" 404 1065
0:0:0:0:0:0:0:1 - - [14/Jul/2020:15:49:39 +0900] "GET /todoList/ HTTP/1.1" 500 9702
127.0.0.1 - - [14/Jul/2020:15:50:23 +0900] "GET / HTTP/1.1" 404 1065
0:0:0:0:0:0:0:1 - - [14/Jul/2020:15:50:24 +0900] "GET /todoList/ HTTP/1.1" 500 9702
127.0.0.1 - - [14/Jul/2020:15:51:30 +0900] "GET / HTTP/1.1" 404 1065
0:0:0:0:0:0:0:1 - - [14/Jul/2020:15:51:31 +0900] "GET /todoList/ HTTP/1.1" 500 9702
127.0.0.1 - - [14/Jul/2020:15:52:59 +0900] "GET / HTTP/1.1" 404 1065
0:0:0:0:0:0:0:1 - - [14/Jul/2020:15:53:00 +0900] "GET /todoList/ HTTP/1.1" 200 1714
0:0:0:0:0:0:0:1 - - [14/Jul/2020:15:53:07 +0900] "POST /todoList/ HTTP/1.1" 500 10271
127.0.0.1 - - [14/Jul/2020:16:06:00 +0900] "GET / HTTP/1.1" 404 1065
0:0:0:0:0:0:0:1 - - [14/Jul/2020:16:06:02 +0900] "GET /todoList/ HTTP/1.1" 200 1724
0:0:0:0:0:0:0:1 - - [14/Jul/2020:16:06:04 +0900] "POST /todoList/ HTTP/1.1" 500 10271
127.0.0.1 - - [14/Jul/2020:16:09:16 +0900] "GET / HTTP/1.1" 404 1065
0:0:0:0:0:0:0:1 - - [14/Jul/2020:16:09:18 +0900] "GET /todoList/ HTTP/1.1" 200 1694
0:0:0:0:0:0:0:1 - - [14/Jul/2020:16:09:21 +0900] "POST /todoList/ HTTP/1.1" 500 10271
127.0.0.1 - - [14/Jul/2020:16:13:08 +0900] "GET / HTTP/1.1" 404 1065
0:0:0:0:0:0:0:1 - - [14/Jul/2020:16:13:09 +0900] "GET /todoList/ HTTP/1.1" 200 1694
0:0:0:0:0:0:0:1 - - [14/Jul/2020:16:13:12 +0900] "POST /todoList/ HTTP/1.1" 500 10271
127.0.0.1 - - [14/Jul/2020:16:17:34 +0900] "GET / HTTP/1.1" 404 1065
0:0:0:0:0:0:0:1 - - [14/Jul/2020:16:17:35 +0900] "GET /todoList/ HTTP/1.1" 200 1694
0:0:0:0:0:0:0:1 - - [14/Jul/2020:16:17:38 +0900] "POST /todoList/ HTTP/1.1" 500 10271
127.0.0.1 - - [14/Jul/2020:16:19:00 +0900] "GET / HTTP/1.1" 404 1065
0:0:0:0:0:0:0:1 - - [14/Jul/2020:16:19:02 +0900] "GET /todoList/ HTTP/1.1" 200 1329
0:0:0:0:0:0:0:1 - - [14/Jul/2020:16:19:05 +0900] "POST /todoList/ HTTP/1.1" 500 10271
127.0.0.1 - - [14/Jul/2020:16:20:02 +0900] "GET / HTTP/1.1" 404 1065
0:0:0:0:0:0:0:1 - - [14/Jul/2020:16:20:04 +0900] "GET /todoList/ HTTP/1.1" 200 1694
0:0:0:0:0:0:0:1 - - [14/Jul/2020:16:20:10 +0900] "POST /todoList/ HTTP/1.1" 500 10271
127.0.0.1 - - [14/Jul/2020:16:26:42 +0900] "GET / HTTP/1.1" 404 1065
0:0:0:0:0:0:0:1 - - [14/Jul/2020:16:26:43 +0900] "GET /todoList/ HTTP/1.1" 200 1958
0:0:0:0:0:0:0:1 - - [14/Jul/2020:16:26:47 +0900] "POST /todoList/;jsessionid=E8A82DA50073894E3F69CE7B64F12D66 HTTP/1.1" 500 10271
127.0.0.1 - - [14/Jul/2020:16:29:22 +0900] "GET / HTTP/1.1" 404 1065
0:0:0:0:0:0:0:1 - - [14/Jul/2020:16:29:25 +0900] "GET /todoList/ HTTP/1.1" 200 1784
0:0:0:0:0:0:0:1 - - [14/Jul/2020:16:29:30 +0900] "POST /todoList/ HTTP/1.1" 500 10271
127.0.0.1 - - [14/Jul/2020:16:30:33 +0900] "GET / HTTP/1.1" 404 1065
0:0:0:0:0:0:0:1 - - [14/Jul/2020:16:30:34 +0900] "GET /todoList/ HTTP/1.1" 200 1784
0:0:0:0:0:0:0:1 - - [14/Jul/2020:16:30:36 +0900] "POST /todoList/ HTTP/1.1" 500 10271
127.0.0.1 - - [14/Jul/2020:17:00:17 +0900] "GET / HTTP/1.1" 404 1065
0:0:0:0:0:0:0:1 - - [14/Jul/2020:17:00:20 +0900] "GET /todoList/ HTTP/1.1" 200 1784
0:0:0:0:0:0:0:1 - - [14/Jul/2020:17:00:22 +0900] "POST /todoList/ HTTP/1.1" 500 10271
0:0:0:0:0:0:0:1 - - [14/Jul/2020:17:04:37 +0900] "GET /todoList/ HTTP/1.1" 200 1784
0:0:0:0:0:0:0:1 - - [14/Jul/2020:17:04:47 +0900] "GET /todoList/todo/3/ HTTP/1.1" 200 260
0:0:0:0:0:0:0:1 - - [14/Jul/2020:17:04:50 +0900] "GET /todoList/todo/2/ HTTP/1.1" 200 210
0:0:0:0:0:0:0:1 - - [14/Jul/2020:17:04:54 +0900] "GET /todoList/todo/1/ HTTP/1.1" 200 227
0:0:0:0:0:0:0:1 - - [14/Jul/2020:17:04:57 +0900] "GET /todoList/todo/4/ HTTP/1.1" 200 210
127.0.0.1 - - [14/Jul/2020:17:15:36 +0900] "GET / HTTP/1.1" 404 1065
0:0:0:0:0:0:0:1 - - [14/Jul/2020:17:15:37 +0900] "GET /todoList/ HTTP/1.1" 200 1784
0:0:0:0:0:0:0:1 - - [14/Jul/2020:17:15:39 +0900] "POST /todoList/ HTTP/1.1" 500 10271
127.0.0.1 - - [14/Jul/2020:17:16:54 +0900] "GET / HTTP/1.1" 404 1065
0:0:0:0:0:0:0:1 - - [14/Jul/2020:17:16:55 +0900] "GET /todoList/ HTTP/1.1" 405 1101
127.0.0.1 - - [14/Jul/2020:17:20:35 +0900] "GET / HTTP/1.1" 404 1065
0:0:0:0:0:0:0:1 - - [14/Jul/2020:17:20:36 +0900] "GET /todoList/ HTTP/1.1" 500 6309
127.0.0.1 - - [14/Jul/2020:17:23:41 +0900] "GET / HTTP/1.1" 404 1065
0:0:0:0:0:0:0:1 - - [14/Jul/2020:17:23:42 +0900] "GET /todoList/ HTTP/1.1" 500 6309
127.0.0.1 - - [14/Jul/2020:17:24:21 +0900] "GET / HTTP/1.1" 404 1065
0:0:0:0:0:0:0:1 - - [14/Jul/2020:17:24:22 +0900] "GET /todoList/ HTTP/1.1" 500 6309
127.0.0.1 - - [14/Jul/2020:17:25:20 +0900] "GET / HTTP/1.1" 404 1065
0:0:0:0:0:0:0:1 - - [14/Jul/2020:17:25:21 +0900] "GET /todoList/ HTTP/1.1" 500 6309
127.0.0.1 - - [14/Jul/2020:17:43:35 +0900] "GET / HTTP/1.1" 404 1065
0:0:0:0:0:0:0:1 - - [14/Jul/2020:17:43:38 +0900] "GET /todoList/ HTTP/1.1" 500 6581
127.0.0.1 - - [14/Jul/2020:17:44:19 +0900] "GET / HTTP/1.1" 404 1065
0:0:0:0:0:0:0:1 - - [14/Jul/2020:17:44:21 +0900] "GET /todoList/ HTTP/1.1" 500 6584
127.0.0.1 - - [14/Jul/2020:17:50:12 +0900] "GET / HTTP/1.1" 404 1065
0:0:0:0:0:0:0:1 - - [14/Jul/2020:17:50:15 +0900] "GET /todoList/ HTTP/1.1" 200 1679
0:0:0:0:0:0:0:1 - - [14/Jul/2020:17:50:17 +0900] "POST /todoList/ HTTP/1.1" 500 10271
127.0.0.1 - - [14/Jul/2020:17:52:44 +0900] "GET / HTTP/1.1" 404 1065
0:0:0:0:0:0:0:1 - - [14/Jul/2020:17:52:45 +0900] "GET /todoList/ HTTP/1.1" 500 9698
127.0.0.1 - - [14/Jul/2020:17:53:41 +0900] "GET / HTTP/1.1" 404 1065
0:0:0:0:0:0:0:1 - - [14/Jul/2020:17:53:42 +0900] "GET /todoList/ HTTP/1.1" 500 9698
127.0.0.1 - - [14/Jul/2020:17:54:44 +0900] "GET / HTTP/1.1" 404 1065
0:0:0:0:0:0:0:1 - - [14/Jul/2020:17:54:45 +0900] "GET /todoList/ HTTP/1.1" 200 1679
0:0:0:0:0:0:0:1 - - [14/Jul/2020:17:54:47 +0900] "POST /todoList/ HTTP/1.1" 500 10271
127.0.0.1 - - [14/Jul/2020:17:59:01 +0900] "GET / HTTP/1.1" 404 1065
0:0:0:0:0:0:0:1 - - [14/Jul/2020:17:59:01 +0900] "GET /todoList/ HTTP/1.1" 500 4612
127.0.0.1 - - [14/Jul/2020:17:59:26 +0900] "GET / HTTP/1.1" 404 1065
0:0:0:0:0:0:0:1 - - [14/Jul/2020:17:59:27 +0900] "GET /todoList/ HTTP/1.1" 200 1679
0:0:0:0:0:0:0:1 - - [14/Jul/2020:17:59:29 +0900] "POST /todoList/ HTTP/1.1" 500 10271
127.0.0.1 - - [14/Jul/2020:18:06:32 +0900] "GET / HTTP/1.1" 404 1065
0:0:0:0:0:0:0:1 - - [14/Jul/2020:18:06:35 +0900] "GET /todoList/ HTTP/1.1" 200 1689
0:0:0:0:0:0:0:1 - - [14/Jul/2020:18:06:36 +0900] "POST /todoList/ HTTP/1.1" 500 10271
127.0.0.1 - - [14/Jul/2020:18:13:58 +0900] "GET / HTTP/1.1" 404 1065
0:0:0:0:0:0:0:1 - - [14/Jul/2020:18:13:59 +0900] "GET /todoList/ HTTP/1.1" 405 1101
127.0.0.1 - - [14/Jul/2020:18:16:58 +0900] "GET / HTTP/1.1" 404 1065
0:0:0:0:0:0:0:1 - - [14/Jul/2020:18:16:59 +0900] "GET /todoList/ HTTP/1.1" 500 4079
127.0.0.1 - - [14/Jul/2020:18:17:49 +0900] "GET / HTTP/1.1" 404 1065
0:0:0:0:0:0:0:1 - - [14/Jul/2020:18:17:50 +0900] "GET /todoList/ HTTP/1.1" 500 6309
127.0.0.1 - - [14/Jul/2020:18:19:15 +0900] "GET / HTTP/1.1" 404 1065
0:0:0:0:0:0:0:1 - - [14/Jul/2020:18:19:16 +0900] "GET /todoList/ HTTP/1.1" 500 6309
127.0.0.1 - - [14/Jul/2020:18:21:58 +0900] "GET / HTTP/1.1" 404 1065
0:0:0:0:0:0:0:1 - - [14/Jul/2020:18:21:59 +0900] "GET /todoList/ HTTP/1.1" 500 6707
127.0.0.1 - - [14/Jul/2020:18:22:48 +0900] "GET / HTTP/1.1" 404 1065
0:0:0:0:0:0:0:1 - - [14/Jul/2020:18:22:49 +0900] "GET /todoList/ HTTP/1.1" 500 6707
127.0.0.1 - - [14/Jul/2020:18:23:47 +0900] "GET / HTTP/1.1" 404 1065
0:0:0:0:0:0:0:1 - - [14/Jul/2020:18:23:48 +0900] "GET /todoList/ HTTP/1.1" 500 6707
0:0:0:0:0:0:0:1 - - [14/Jul/2020:18:24:47 +0900] "GET /todoList/ HTTP/1.1" 500 6707
0:0:0:0:0:0:0:1 - - [14/Jul/2020:18:28:15 +0900] "GET /todoList/ HTTP/1.1" 500 6707
127.0.0.1 - - [14/Jul/2020:18:29:00 +0900] "GET / HTTP/1.1" 404 1065
0:0:0:0:0:0:0:1 - - [14/Jul/2020:18:29:01 +0900] "GET /todoList/ HTTP/1.1" 500 6707
127.0.0.1 - - [14/Jul/2020:18:30:00 +0900] "GET / HTTP/1.1" 404 1065
0:0:0:0:0:0:0:1 - - [14/Jul/2020:18:30:03 +0900] "GET /todoList/ HTTP/1.1" 200 1943
0:0:0:0:0:0:0:1 - - [14/Jul/2020:18:30:06 +0900] "POST /todoList/;jsessionid=510BA94F92FB60369E553D0FC881AAE1 HTTP/1.1" 500 10868
0:0:0:0:0:0:0:1 - - [14/Jul/2020:18:30:19 +0900] "POST /todoList/;jsessionid=510BA94F92FB60369E553D0FC881AAE1 HTTP/1.1" 302 -
0:0:0:0:0:0:0:1 - - [14/Jul/2020:18:30:19 +0900] "GET /todoList/ HTTP/1.1" 200 1948
0:0:0:0:0:0:0:1 - - [14/Jul/2020:18:30:38 +0900] "POST /todoList/ HTTP/1.1" 302 -
0:0:0:0:0:0:0:1 - - [14/Jul/2020:18:30:38 +0900] "GET /todoList/ HTTP/1.1" 200 2217
0:0:0:0:0:0:0:1 - - [14/Jul/2020:18:31:11 +0900] "POST /todoList/ HTTP/1.1" 500 10868
127.0.0.1 - - [14/Jul/2020:18:32:06 +0900] "GET / HTTP/1.1" 404 1065
0:0:0:0:0:0:0:1 - - [14/Jul/2020:18:32:08 +0900] "GET /todoList/ HTTP/1.1" 500 7486
127.0.0.1 - - [14/Jul/2020:18:34:02 +0900] "GET / HTTP/1.1" 404 1065
0:0:0:0:0:0:0:1 - - [14/Jul/2020:18:34:04 +0900] "GET /todoList/ HTTP/1.1" 500 7495
